[
  {
    "comuna_id": 10301,
    "nombre_comuna": "IQUIQUE"
  },
  {
    "comuna_id": 10302,
    "nombre_comuna": "ALTO HOSPICIO"
  },
  {
    "comuna_id": 12001,
    "nombre_comuna": "BERLIN"
  },
  {
    "comuna_id": 12002,
    "nombre_comuna": "FRANKFURT"
  },
  {
    "comuna_id": 12003,
    "nombre_comuna": "HAMBURGO"
  },
  {
    "comuna_id": 12004,
    "nombre_comuna": "MUNICH"
  },
  {
    "comuna_id": 12006,
    "nombre_comuna": "BAHIA BLANCA"
  },
  {
    "comuna_id": 12007,
    "nombre_comuna": "BARILOCHE"
  },
  {
    "comuna_id": 12008,
    "nombre_comuna": "BUENOS AIRES"
  },
  {
    "comuna_id": 12009,
    "nombre_comuna": "COMODORO RIVADAVIA"
  },
  {
    "comuna_id": 12010,
    "nombre_comuna": "CORDOBA"
  },
  {
    "comuna_id": 12011,
    "nombre_comuna": "ESQUEL"
  },
  {
    "comuna_id": 12012,
    "nombre_comuna": "MAR DEL PLATA"
  },
  {
    "comuna_id": 12013,
    "nombre_comuna": "MENDOZA"
  },
  {
    "comuna_id": 12014,
    "nombre_comuna": "NEUQUEN"
  },
  {
    "comuna_id": 12015,
    "nombre_comuna": "RIO GALLEGOS"
  },
  {
    "comuna_id": 12016,
    "nombre_comuna": "RIO GRANDE"
  },
  {
    "comuna_id": 12017,
    "nombre_comuna": "ROSARIO"
  },
  {
    "comuna_id": 12018,
    "nombre_comuna": "SALTA"
  },
  {
    "comuna_id": 12019,
    "nombre_comuna": "SAN JUAN"
  },
  {
    "comuna_id": 12020,
    "nombre_comuna": "SAN LUIS"
  },
  {
    "comuna_id": 12021,
    "nombre_comuna": "TRELEW"
  },
  {
    "comuna_id": 12022,
    "nombre_comuna": "USHUAIA"
  },
  {
    "comuna_id": 12023,
    "nombre_comuna": "CANBERRA"
  },
  {
    "comuna_id": 12024,
    "nombre_comuna": "MELBOURNE"
  },
  {
    "comuna_id": 12025,
    "nombre_comuna": "PERTH"
  },
  {
    "comuna_id": 12026,
    "nombre_comuna": "SYDNEY"
  },
  {
    "comuna_id": 12027,
    "nombre_comuna": "VIENA"
  },
  {
    "comuna_id": 12028,
    "nombre_comuna": "BRUSELAS"
  },
  {
    "comuna_id": 12029,
    "nombre_comuna": "LA PAZ"
  },
  {
    "comuna_id": 12030,
    "nombre_comuna": "SANTA CRUZ"
  },
  {
    "comuna_id": 12031,
    "nombre_comuna": "BRASILIA"
  },
  {
    "comuna_id": 12032,
    "nombre_comuna": "PORTO ALEGRE"
  },
  {
    "comuna_id": 12033,
    "nombre_comuna": "RIO DE JANEIRO"
  },
  {
    "comuna_id": 12034,
    "nombre_comuna": "SAO PAULO"
  },
  {
    "comuna_id": 12035,
    "nombre_comuna": "BUCAREST"
  },
  {
    "comuna_id": 12036,
    "nombre_comuna": "CALGARY"
  },
  {
    "comuna_id": 12037,
    "nombre_comuna": "MONTREAL"
  },
  {
    "comuna_id": 12038,
    "nombre_comuna": "OTTAWA"
  },
  {
    "comuna_id": 12039,
    "nombre_comuna": "TORONTO"
  },
  {
    "comuna_id": 12040,
    "nombre_comuna": "VANCOUVER"
  },
  {
    "comuna_id": 12041,
    "nombre_comuna": "WINNIPEG"
  },
  {
    "comuna_id": 12042,
    "nombre_comuna": "BEIJING"
  },
  {
    "comuna_id": 12043,
    "nombre_comuna": "GUANGZHOU"
  },
  {
    "comuna_id": 12044,
    "nombre_comuna": "HONG KONG"
  },
  {
    "comuna_id": 12045,
    "nombre_comuna": "SHANGHAI"
  },
  {
    "comuna_id": 12046,
    "nombre_comuna": "BOGOTA"
  },
  {
    "comuna_id": 12047,
    "nombre_comuna": "SAN JOSE"
  },
  {
    "comuna_id": 12048,
    "nombre_comuna": "ZAGREB"
  },
  {
    "comuna_id": 12049,
    "nombre_comuna": "LA HABANA"
  },
  {
    "comuna_id": 12050,
    "nombre_comuna": "COPENHAGUE"
  },
  {
    "comuna_id": 12051,
    "nombre_comuna": "GUAYAQUIL"
  },
  {
    "comuna_id": 12052,
    "nombre_comuna": "QUITO"
  },
  {
    "comuna_id": 12053,
    "nombre_comuna": "EL CAIRO"
  },
  {
    "comuna_id": 12054,
    "nombre_comuna": "SAN SALVADOR"
  },
  {
    "comuna_id": 12055,
    "nombre_comuna": "ABU DHABI"
  },
  {
    "comuna_id": 12056,
    "nombre_comuna": "BARCELONA"
  },
  {
    "comuna_id": 12057,
    "nombre_comuna": "MADRID"
  },
  {
    "comuna_id": 12058,
    "nombre_comuna": "CHICAGO"
  },
  {
    "comuna_id": 12059,
    "nombre_comuna": "HOUSTON"
  },
  {
    "comuna_id": 12060,
    "nombre_comuna": "LOS ANGELES"
  },
  {
    "comuna_id": 12061,
    "nombre_comuna": "MIAMI"
  },
  {
    "comuna_id": 12062,
    "nombre_comuna": "NUEVA YORK"
  },
  {
    "comuna_id": 12063,
    "nombre_comuna": "SALT LAKE CITY"
  },
  {
    "comuna_id": 12064,
    "nombre_comuna": "SAN FRANCISCO"
  },
  {
    "comuna_id": 12065,
    "nombre_comuna": "SEATTLE"
  },
  {
    "comuna_id": 12066,
    "nombre_comuna": "WASHINGTON"
  },
  {
    "comuna_id": 12068,
    "nombre_comuna": "MANILA"
  },
  {
    "comuna_id": 12069,
    "nombre_comuna": "HELSINKI"
  },
  {
    "comuna_id": 12070,
    "nombre_comuna": "PARIS"
  },
  {
    "comuna_id": 12072,
    "nombre_comuna": "ATENAS"
  },
  {
    "comuna_id": 12073,
    "nombre_comuna": "GUATEMALA"
  },
  {
    "comuna_id": 12075,
    "nombre_comuna": "PUERTO PRINCIPE"
  },
  {
    "comuna_id": 12076,
    "nombre_comuna": "TEGUCIGALPA"
  },
  {
    "comuna_id": 12077,
    "nombre_comuna": "BUDAPEST"
  },
  {
    "comuna_id": 12078,
    "nombre_comuna": "NUEVA DELHI"
  },
  {
    "comuna_id": 12079,
    "nombre_comuna": "JAKARTA"
  },
  {
    "comuna_id": 12081,
    "nombre_comuna": "DUBLIN"
  },
  {
    "comuna_id": 12082,
    "nombre_comuna": "TEL AVIV"
  },
  {
    "comuna_id": 12083,
    "nombre_comuna": "MILAN"
  },
  {
    "comuna_id": 12084,
    "nombre_comuna": "ROMA"
  },
  {
    "comuna_id": 12086,
    "nombre_comuna": "TOKIO"
  },
  {
    "comuna_id": 12087,
    "nombre_comuna": "AMMAN"
  },
  {
    "comuna_id": 12088,
    "nombre_comuna": "NAIROBI"
  },
  {
    "comuna_id": 12089,
    "nombre_comuna": "BEIRUT"
  },
  {
    "comuna_id": 12090,
    "nombre_comuna": "KUALA LUMPUR"
  },
  {
    "comuna_id": 12092,
    "nombre_comuna": "CIUDAD DE MEXICO"
  },
  {
    "comuna_id": 12093,
    "nombre_comuna": "MANAGUA"
  },
  {
    "comuna_id": 12094,
    "nombre_comuna": "OSLO"
  },
  {
    "comuna_id": 12095,
    "nombre_comuna": "WELLINGTON"
  },
  {
    "comuna_id": 12096,
    "nombre_comuna": "AMSTERDAM"
  },
  {
    "comuna_id": 12098,
    "nombre_comuna": "CIUDAD DE PANAMA"
  },
  {
    "comuna_id": 12099,
    "nombre_comuna": "ASUNCION"
  },
  {
    "comuna_id": 12100,
    "nombre_comuna": "LIMA"
  },
  {
    "comuna_id": 12101,
    "nombre_comuna": "TACNA"
  },
  {
    "comuna_id": 12102,
    "nombre_comuna": "VARSOVIA"
  },
  {
    "comuna_id": 12103,
    "nombre_comuna": "LISBOA"
  },
  {
    "comuna_id": 12104,
    "nombre_comuna": "LONDRES"
  },
  {
    "comuna_id": 12105,
    "nombre_comuna": "PRAGA"
  },
  {
    "comuna_id": 12106,
    "nombre_comuna": "SEUL"
  },
  {
    "comuna_id": 12107,
    "nombre_comuna": "SANTO DOMINGO"
  },
  {
    "comuna_id": 12108,
    "nombre_comuna": "MOSCU"
  },
  {
    "comuna_id": 12109,
    "nombre_comuna": "SINGAPUR"
  },
  {
    "comuna_id": 12111,
    "nombre_comuna": "PRETORIA"
  },
  {
    "comuna_id": 12112,
    "nombre_comuna": "ESTOCOLMO"
  },
  {
    "comuna_id": 12113,
    "nombre_comuna": "GOTEMBURGO"
  },
  {
    "comuna_id": 12114,
    "nombre_comuna": "BERNA"
  },
  {
    "comuna_id": 12115,
    "nombre_comuna": "BANGKOK"
  },
  {
    "comuna_id": 12117,
    "nombre_comuna": "ANKARA"
  },
  {
    "comuna_id": 12118,
    "nombre_comuna": "MONTEVIDEO"
  },
  {
    "comuna_id": 12119,
    "nombre_comuna": "CARACAS"
  },
  {
    "comuna_id": 12120,
    "nombre_comuna": "PUERTO ORDAZ"
  },
  {
    "comuna_id": 15201,
    "nombre_comuna": "HUARA"
  },
  {
    "comuna_id": 15202,
    "nombre_comuna": "CAMINA"
  },
  {
    "comuna_id": 15203,
    "nombre_comuna": "COLCHANE"
  },
  {
    "comuna_id": 15204,
    "nombre_comuna": "PICA"
  },
  {
    "comuna_id": 15205,
    "nombre_comuna": "POZO ALMONTE"
  },
  {
    "comuna_id": 20401,
    "nombre_comuna": "TOCOPILLA"
  },
  {
    "comuna_id": 20402,
    "nombre_comuna": "MARIA ELENA"
  },
  {
    "comuna_id": 20501,
    "nombre_comuna": "CALAMA"
  },
  {
    "comuna_id": 20502,
    "nombre_comuna": "OLLAGUE"
  },
  {
    "comuna_id": 20503,
    "nombre_comuna": "SAN PEDRO DE ATACAMA"
  },
  {
    "comuna_id": 20601,
    "nombre_comuna": "ANTOFAGASTA"
  },
  {
    "comuna_id": 20602,
    "nombre_comuna": "MEJILLONES"
  },
  {
    "comuna_id": 20603,
    "nombre_comuna": "SIERRA GORDA"
  },
  {
    "comuna_id": 20604,
    "nombre_comuna": "TALTAL"
  },
  {
    "comuna_id": 30701,
    "nombre_comuna": "CHANARAL"
  },
  {
    "comuna_id": 30702,
    "nombre_comuna": "DIEGO DE ALMAGRO"
  },
  {
    "comuna_id": 30801,
    "nombre_comuna": "COPIAPO"
  },
  {
    "comuna_id": 30802,
    "nombre_comuna": "CALDERA"
  },
  {
    "comuna_id": 30803,
    "nombre_comuna": "TIERRA AMARILLA"
  },
  {
    "comuna_id": 30901,
    "nombre_comuna": "VALLENAR"
  },
  {
    "comuna_id": 30902,
    "nombre_comuna": "FREIRINA"
  },
  {
    "comuna_id": 30903,
    "nombre_comuna": "HUASCO"
  },
  {
    "comuna_id": 30904,
    "nombre_comuna": "ALTO DEL CARMEN"
  },
  {
    "comuna_id": 41001,
    "nombre_comuna": "LA SERENA"
  },
  {
    "comuna_id": 41002,
    "nombre_comuna": "LA HIGUERA"
  },
  {
    "comuna_id": 41003,
    "nombre_comuna": "COQUIMBO"
  },
  {
    "comuna_id": 41004,
    "nombre_comuna": "ANDACOLLO"
  },
  {
    "comuna_id": 41005,
    "nombre_comuna": "VICUNA"
  },
  {
    "comuna_id": 41006,
    "nombre_comuna": "PAIHUANO"
  },
  {
    "comuna_id": 41101,
    "nombre_comuna": "OVALLE"
  },
  {
    "comuna_id": 41102,
    "nombre_comuna": "RIO HURTADO"
  },
  {
    "comuna_id": 41103,
    "nombre_comuna": "MONTE PATRIA"
  },
  {
    "comuna_id": 41104,
    "nombre_comuna": "COMBARBALA"
  },
  {
    "comuna_id": 41105,
    "nombre_comuna": "PUNITAQUI"
  },
  {
    "comuna_id": 41201,
    "nombre_comuna": "ILLAPEL"
  },
  {
    "comuna_id": 41202,
    "nombre_comuna": "SALAMANCA"
  },
  {
    "comuna_id": 41203,
    "nombre_comuna": "LOS VILOS"
  },
  {
    "comuna_id": 41204,
    "nombre_comuna": "CANELA"
  },
  {
    "comuna_id": 51301,
    "nombre_comuna": "LA LIGUA"
  },
  {
    "comuna_id": 51302,
    "nombre_comuna": "PETORCA"
  },
  {
    "comuna_id": 51303,
    "nombre_comuna": "CABILDO"
  },
  {
    "comuna_id": 51304,
    "nombre_comuna": "ZAPALLAR"
  },
  {
    "comuna_id": 51305,
    "nombre_comuna": "PAPUDO"
  },
  {
    "comuna_id": 51401,
    "nombre_comuna": "LOS ANDES"
  },
  {
    "comuna_id": 51402,
    "nombre_comuna": "SAN ESTEBAN"
  },
  {
    "comuna_id": 51403,
    "nombre_comuna": "CALLE LARGA"
  },
  {
    "comuna_id": 51404,
    "nombre_comuna": "RINCONADA"
  },
  {
    "comuna_id": 51501,
    "nombre_comuna": "SAN FELIPE"
  },
  {
    "comuna_id": 51502,
    "nombre_comuna": "PUTAENDO"
  },
  {
    "comuna_id": 51503,
    "nombre_comuna": "SANTA MARIA"
  },
  {
    "comuna_id": 51504,
    "nombre_comuna": "PANQUEHUE"
  },
  {
    "comuna_id": 51505,
    "nombre_comuna": "LLAY-LLAY"
  },
  {
    "comuna_id": 51506,
    "nombre_comuna": "CATEMU"
  },
  {
    "comuna_id": 51601,
    "nombre_comuna": "QUILLOTA"
  },
  {
    "comuna_id": 51602,
    "nombre_comuna": "LA CRUZ"
  },
  {
    "comuna_id": 51603,
    "nombre_comuna": "CALERA"
  },
  {
    "comuna_id": 51604,
    "nombre_comuna": "NOGALES"
  },
  {
    "comuna_id": 51605,
    "nombre_comuna": "HIJUELAS"
  },
  {
    "comuna_id": 51701,
    "nombre_comuna": "VALPARAISO"
  },
  {
    "comuna_id": 51702,
    "nombre_comuna": "VINA DEL MAR"
  },
  {
    "comuna_id": 51703,
    "nombre_comuna": "QUINTERO"
  },
  {
    "comuna_id": 51704,
    "nombre_comuna": "PUCHUNCAVI"
  },
  {
    "comuna_id": 51707,
    "nombre_comuna": "CASABLANCA"
  },
  {
    "comuna_id": 51708,
    "nombre_comuna": "JUAN FERNANDEZ"
  },
  {
    "comuna_id": 51709,
    "nombre_comuna": "CONCON"
  },
  {
    "comuna_id": 51801,
    "nombre_comuna": "SAN ANTONIO"
  },
  {
    "comuna_id": 51802,
    "nombre_comuna": "CARTAGENA"
  },
  {
    "comuna_id": 51803,
    "nombre_comuna": "EL TABO"
  },
  {
    "comuna_id": 51804,
    "nombre_comuna": "EL QUISCO"
  },
  {
    "comuna_id": 51805,
    "nombre_comuna": "ALGARROBO"
  },
  {
    "comuna_id": 51806,
    "nombre_comuna": "SANTO DOMINGO"
  },
  {
    "comuna_id": 51901,
    "nombre_comuna": "ISLA DE PASCUA"
  },
  {
    "comuna_id": 55401,
    "nombre_comuna": "QUILPUE"
  },
  {
    "comuna_id": 55402,
    "nombre_comuna": "VILLA ALEMANA"
  },
  {
    "comuna_id": 55403,
    "nombre_comuna": "LIMACHE"
  },
  {
    "comuna_id": 55404,
    "nombre_comuna": "OLMUE"
  },
  {
    "comuna_id": 62601,
    "nombre_comuna": "RANCAGUA"
  },
  {
    "comuna_id": 62602,
    "nombre_comuna": "GRANEROS"
  },
  {
    "comuna_id": 62603,
    "nombre_comuna": "MOSTAZAL"
  },
  {
    "comuna_id": 62604,
    "nombre_comuna": "CODEGUA"
  },
  {
    "comuna_id": 62605,
    "nombre_comuna": "MACHALI"
  },
  {
    "comuna_id": 62606,
    "nombre_comuna": "OLIVAR"
  },
  {
    "comuna_id": 62607,
    "nombre_comuna": "REQUINOA"
  },
  {
    "comuna_id": 62608,
    "nombre_comuna": "RENGO"
  },
  {
    "comuna_id": 62609,
    "nombre_comuna": "MALLOA"
  },
  {
    "comuna_id": 62610,
    "nombre_comuna": "QUINTA DE TILCOCO"
  },
  {
    "comuna_id": 62611,
    "nombre_comuna": "SAN VICENTE"
  },
  {
    "comuna_id": 62612,
    "nombre_comuna": "PICHIDEGUA"
  },
  {
    "comuna_id": 62613,
    "nombre_comuna": "PEUMO"
  },
  {
    "comuna_id": 62614,
    "nombre_comuna": "COLTAUCO"
  },
  {
    "comuna_id": 62615,
    "nombre_comuna": "COINCO"
  },
  {
    "comuna_id": 62616,
    "nombre_comuna": "DONIHUE"
  },
  {
    "comuna_id": 62617,
    "nombre_comuna": "LAS CABRAS"
  },
  {
    "comuna_id": 62701,
    "nombre_comuna": "SAN FERNANDO"
  },
  {
    "comuna_id": 62702,
    "nombre_comuna": "CHIMBARONGO"
  },
  {
    "comuna_id": 62703,
    "nombre_comuna": "PLACILLA"
  },
  {
    "comuna_id": 62704,
    "nombre_comuna": "NANCAGUA"
  },
  {
    "comuna_id": 62705,
    "nombre_comuna": "CHEPICA"
  },
  {
    "comuna_id": 62706,
    "nombre_comuna": "SANTA CRUZ"
  },
  {
    "comuna_id": 62707,
    "nombre_comuna": "LOLOL"
  },
  {
    "comuna_id": 62708,
    "nombre_comuna": "PUMANQUE"
  },
  {
    "comuna_id": 62709,
    "nombre_comuna": "PALMILLA"
  },
  {
    "comuna_id": 62710,
    "nombre_comuna": "PERALILLO"
  },
  {
    "comuna_id": 62801,
    "nombre_comuna": "PICHILEMU"
  },
  {
    "comuna_id": 62802,
    "nombre_comuna": "NAVIDAD"
  },
  {
    "comuna_id": 62803,
    "nombre_comuna": "LITUECHE"
  },
  {
    "comuna_id": 62804,
    "nombre_comuna": "LA ESTRELLA"
  },
  {
    "comuna_id": 62805,
    "nombre_comuna": "MARCHIGUE"
  },
  {
    "comuna_id": 62806,
    "nombre_comuna": "PAREDONES"
  },
  {
    "comuna_id": 72901,
    "nombre_comuna": "CURICO"
  },
  {
    "comuna_id": 72902,
    "nombre_comuna": "TENO"
  },
  {
    "comuna_id": 72903,
    "nombre_comuna": "ROMERAL"
  },
  {
    "comuna_id": 72904,
    "nombre_comuna": "MOLINA"
  },
  {
    "comuna_id": 72905,
    "nombre_comuna": "SAGRADA FAMILIA"
  },
  {
    "comuna_id": 72906,
    "nombre_comuna": "HUALANE"
  },
  {
    "comuna_id": 72907,
    "nombre_comuna": "LICANTEN"
  },
  {
    "comuna_id": 72908,
    "nombre_comuna": "VICHUQUEN"
  },
  {
    "comuna_id": 72909,
    "nombre_comuna": "RAUCO"
  },
  {
    "comuna_id": 73001,
    "nombre_comuna": "TALCA"
  },
  {
    "comuna_id": 73002,
    "nombre_comuna": "PELARCO"
  },
  {
    "comuna_id": 73003,
    "nombre_comuna": "RIO CLARO"
  },
  {
    "comuna_id": 73004,
    "nombre_comuna": "SAN CLEMENTE"
  },
  {
    "comuna_id": 73005,
    "nombre_comuna": "MAULE"
  },
  {
    "comuna_id": 73006,
    "nombre_comuna": "EMPEDRADO"
  },
  {
    "comuna_id": 73007,
    "nombre_comuna": "PENCAHUE"
  },
  {
    "comuna_id": 73008,
    "nombre_comuna": "CONSTITUCION"
  },
  {
    "comuna_id": 73009,
    "nombre_comuna": "CUREPTO"
  },
  {
    "comuna_id": 73010,
    "nombre_comuna": "SAN RAFAEL"
  },
  {
    "comuna_id": 73101,
    "nombre_comuna": "LINARES"
  },
  {
    "comuna_id": 73102,
    "nombre_comuna": "YERBAS BUENAS"
  },
  {
    "comuna_id": 73103,
    "nombre_comuna": "COLBUN"
  },
  {
    "comuna_id": 73104,
    "nombre_comuna": "LONGAVI"
  },
  {
    "comuna_id": 73105,
    "nombre_comuna": "PARRAL"
  },
  {
    "comuna_id": 73106,
    "nombre_comuna": "RETIRO"
  },
  {
    "comuna_id": 73107,
    "nombre_comuna": "VILLA ALEGRE"
  },
  {
    "comuna_id": 73108,
    "nombre_comuna": "SAN JAVIER"
  },
  {
    "comuna_id": 73201,
    "nombre_comuna": "CAUQUENES"
  },
  {
    "comuna_id": 73202,
    "nombre_comuna": "PELLUHUE"
  },
  {
    "comuna_id": 73203,
    "nombre_comuna": "CHANCO"
  },
  {
    "comuna_id": 83301,
    "nombre_comuna": "CHILLAN"
  },
  {
    "comuna_id": 83302,
    "nombre_comuna": "SAN CARLOS"
  },
  {
    "comuna_id": 83303,
    "nombre_comuna": "NIQUEN"
  },
  {
    "comuna_id": 83304,
    "nombre_comuna": "SAN FABIAN"
  },
  {
    "comuna_id": 83305,
    "nombre_comuna": "COIHUECO"
  },
  {
    "comuna_id": 83306,
    "nombre_comuna": "PINTO"
  },
  {
    "comuna_id": 83307,
    "nombre_comuna": "SAN IGNACIO"
  },
  {
    "comuna_id": 83308,
    "nombre_comuna": "EL CARMEN"
  },
  {
    "comuna_id": 83309,
    "nombre_comuna": "YUNGAY"
  },
  {
    "comuna_id": 83310,
    "nombre_comuna": "PEMUCO"
  },
  {
    "comuna_id": 83311,
    "nombre_comuna": "BULNES"
  },
  {
    "comuna_id": 83312,
    "nombre_comuna": "QUILLON"
  },
  {
    "comuna_id": 83313,
    "nombre_comuna": "RANQUIL"
  },
  {
    "comuna_id": 83314,
    "nombre_comuna": "PORTEZUELO"
  },
  {
    "comuna_id": 83315,
    "nombre_comuna": "COELEMU"
  },
  {
    "comuna_id": 83316,
    "nombre_comuna": "TREGUACO"
  },
  {
    "comuna_id": 83317,
    "nombre_comuna": "COBQUECURA"
  },
  {
    "comuna_id": 83318,
    "nombre_comuna": "QUIRIHUE"
  },
  {
    "comuna_id": 83319,
    "nombre_comuna": "NINHUE"
  },
  {
    "comuna_id": 83320,
    "nombre_comuna": "SAN NICOLAS"
  },
  {
    "comuna_id": 83321,
    "nombre_comuna": "CHILLAN VIEJO"
  },
  {
    "comuna_id": 83401,
    "nombre_comuna": "CONCEPCION"
  },
  {
    "comuna_id": 83402,
    "nombre_comuna": "TALCAHUANO"
  },
  {
    "comuna_id": 83403,
    "nombre_comuna": "PENCO"
  },
  {
    "comuna_id": 83404,
    "nombre_comuna": "TOME"
  },
  {
    "comuna_id": 83405,
    "nombre_comuna": "FLORIDA"
  },
  {
    "comuna_id": 83406,
    "nombre_comuna": "HUALQUI"
  },
  {
    "comuna_id": 83407,
    "nombre_comuna": "SANTA JUANA"
  },
  {
    "comuna_id": 83408,
    "nombre_comuna": "LOTA"
  },
  {
    "comuna_id": 83409,
    "nombre_comuna": "CORONEL"
  },
  {
    "comuna_id": 83410,
    "nombre_comuna": "SAN PEDRO DE LA PAZ"
  },
  {
    "comuna_id": 83411,
    "nombre_comuna": "CHIGUAYANTE"
  },
  {
    "comuna_id": 83412,
    "nombre_comuna": "HUALPEN"
  },
  {
    "comuna_id": 83501,
    "nombre_comuna": "LOS ANGELES"
  },
  {
    "comuna_id": 83502,
    "nombre_comuna": "CABRERO"
  },
  {
    "comuna_id": 83503,
    "nombre_comuna": "TUCAPEL"
  },
  {
    "comuna_id": 83504,
    "nombre_comuna": "ANTUCO"
  },
  {
    "comuna_id": 83505,
    "nombre_comuna": "QUILLECO"
  },
  {
    "comuna_id": 83506,
    "nombre_comuna": "SANTA BARBARA"
  },
  {
    "comuna_id": 83507,
    "nombre_comuna": "QUILACO"
  },
  {
    "comuna_id": 83508,
    "nombre_comuna": "MULCHEN"
  },
  {
    "comuna_id": 83509,
    "nombre_comuna": "NEGRETE"
  },
  {
    "comuna_id": 83510,
    "nombre_comuna": "NACIMIENTO"
  },
  {
    "comuna_id": 83511,
    "nombre_comuna": "LAJA"
  },
  {
    "comuna_id": 83512,
    "nombre_comuna": "SAN ROSENDO"
  },
  {
    "comuna_id": 83513,
    "nombre_comuna": "YUMBEL"
  },
  {
    "comuna_id": 83514,
    "nombre_comuna": "ALTO BIOBIO"
  },
  {
    "comuna_id": 83601,
    "nombre_comuna": "LEBU"
  },
  {
    "comuna_id": 83602,
    "nombre_comuna": "ARAUCO"
  },
  {
    "comuna_id": 83603,
    "nombre_comuna": "CURANILAHUE"
  },
  {
    "comuna_id": 83604,
    "nombre_comuna": "LOS ALAMOS"
  },
  {
    "comuna_id": 83605,
    "nombre_comuna": "CANETE"
  },
  {
    "comuna_id": 83606,
    "nombre_comuna": "CONTULMO"
  },
  {
    "comuna_id": 83607,
    "nombre_comuna": "TIRUA"
  },
  {
    "comuna_id": 93701,
    "nombre_comuna": "ANGOL"
  },
  {
    "comuna_id": 93702,
    "nombre_comuna": "RENAICO"
  },
  {
    "comuna_id": 93703,
    "nombre_comuna": "COLLIPULLI"
  },
  {
    "comuna_id": 93704,
    "nombre_comuna": "LONQUIMAY"
  },
  {
    "comuna_id": 93705,
    "nombre_comuna": "CURACAUTIN"
  },
  {
    "comuna_id": 93706,
    "nombre_comuna": "ERCILLA"
  },
  {
    "comuna_id": 93707,
    "nombre_comuna": "VICTORIA"
  },
  {
    "comuna_id": 93708,
    "nombre_comuna": "TRAIGUEN"
  },
  {
    "comuna_id": 93709,
    "nombre_comuna": "LUMACO"
  },
  {
    "comuna_id": 93710,
    "nombre_comuna": "PUREN"
  },
  {
    "comuna_id": 93711,
    "nombre_comuna": "LOS SAUCES"
  },
  {
    "comuna_id": 93801,
    "nombre_comuna": "TEMUCO"
  },
  {
    "comuna_id": 93802,
    "nombre_comuna": "LAUTARO"
  },
  {
    "comuna_id": 93803,
    "nombre_comuna": "PERQUENCO"
  },
  {
    "comuna_id": 93804,
    "nombre_comuna": "VILCUN"
  },
  {
    "comuna_id": 93805,
    "nombre_comuna": "CUNCO"
  },
  {
    "comuna_id": 93806,
    "nombre_comuna": "MELIPEUCO"
  },
  {
    "comuna_id": 93807,
    "nombre_comuna": "CURARREHUE"
  },
  {
    "comuna_id": 93808,
    "nombre_comuna": "PUCON"
  },
  {
    "comuna_id": 93809,
    "nombre_comuna": "VILLARRICA"
  },
  {
    "comuna_id": 93810,
    "nombre_comuna": "FREIRE"
  },
  {
    "comuna_id": 93811,
    "nombre_comuna": "PITRUFQUEN"
  },
  {
    "comuna_id": 93812,
    "nombre_comuna": "GORBEA"
  },
  {
    "comuna_id": 93813,
    "nombre_comuna": "LONCOCHE"
  },
  {
    "comuna_id": 93814,
    "nombre_comuna": "TOLTEN"
  },
  {
    "comuna_id": 93815,
    "nombre_comuna": "TEODORO SCHMIDT"
  },
  {
    "comuna_id": 93816,
    "nombre_comuna": "SAAVEDRA"
  },
  {
    "comuna_id": 93817,
    "nombre_comuna": "CARAHUE"
  },
  {
    "comuna_id": 93818,
    "nombre_comuna": "NUEVA IMPERIAL"
  },
  {
    "comuna_id": 93819,
    "nombre_comuna": "GALVARINO"
  },
  {
    "comuna_id": 93820,
    "nombre_comuna": "PADRE LAS CASAS"
  },
  {
    "comuna_id": 93821,
    "nombre_comuna": "CHOLCHOL"
  },
  {
    "comuna_id": 104001,
    "nombre_comuna": "OSORNO"
  },
  {
    "comuna_id": 104002,
    "nombre_comuna": "SAN PABLO"
  },
  {
    "comuna_id": 104003,
    "nombre_comuna": "PUYEHUE"
  },
  {
    "comuna_id": 104004,
    "nombre_comuna": "PUERTO OCTAY"
  },
  {
    "comuna_id": 104005,
    "nombre_comuna": "PURRANQUE"
  },
  {
    "comuna_id": 104006,
    "nombre_comuna": "RIO NEGRO"
  },
  {
    "comuna_id": 104007,
    "nombre_comuna": "SAN JUAN DE LA COSTA"
  },
  {
    "comuna_id": 104101,
    "nombre_comuna": "PUERTO MONTT"
  },
  {
    "comuna_id": 104102,
    "nombre_comuna": "PUERTO VARAS"
  },
  {
    "comuna_id": 104103,
    "nombre_comuna": "COCHAMO"
  },
  {
    "comuna_id": 104104,
    "nombre_comuna": "CALBUCO"
  },
  {
    "comuna_id": 104105,
    "nombre_comuna": "MAULLIN"
  },
  {
    "comuna_id": 104106,
    "nombre_comuna": "LOS MUERMOS"
  },
  {
    "comuna_id": 104107,
    "nombre_comuna": "FRESIA"
  },
  {
    "comuna_id": 104108,
    "nombre_comuna": "LLANQUIHUE"
  },
  {
    "comuna_id": 104109,
    "nombre_comuna": "FRUTILLAR"
  },
  {
    "comuna_id": 104201,
    "nombre_comuna": "CASTRO"
  },
  {
    "comuna_id": 104202,
    "nombre_comuna": "ANCUD"
  },
  {
    "comuna_id": 104203,
    "nombre_comuna": "QUEMCHI"
  },
  {
    "comuna_id": 104204,
    "nombre_comuna": "DALCAHUE"
  },
  {
    "comuna_id": 104205,
    "nombre_comuna": "CURACO DE VELEZ"
  },
  {
    "comuna_id": 104206,
    "nombre_comuna": "QUINCHAO"
  },
  {
    "comuna_id": 104207,
    "nombre_comuna": "PUQUELDON"
  },
  {
    "comuna_id": 104208,
    "nombre_comuna": "CHONCHI"
  },
  {
    "comuna_id": 104209,
    "nombre_comuna": "QUEILEN"
  },
  {
    "comuna_id": 104210,
    "nombre_comuna": "QUELLON"
  },
  {
    "comuna_id": 104301,
    "nombre_comuna": "CHAITEN"
  },
  {
    "comuna_id": 104302,
    "nombre_comuna": "HUALAIHUE"
  },
  {
    "comuna_id": 104303,
    "nombre_comuna": "FUTALEUFU"
  },
  {
    "comuna_id": 104304,
    "nombre_comuna": "PALENA"
  },
  {
    "comuna_id": 114401,
    "nombre_comuna": "COYHAIQUE"
  },
  {
    "comuna_id": 114402,
    "nombre_comuna": "LAGO VERDE"
  },
  {
    "comuna_id": 114501,
    "nombre_comuna": "AISEN"
  },
  {
    "comuna_id": 114502,
    "nombre_comuna": "CISNES"
  },
  {
    "comuna_id": 114503,
    "nombre_comuna": "GUAITECAS"
  },
  {
    "comuna_id": 114601,
    "nombre_comuna": "CHILE CHICO"
  },
  {
    "comuna_id": 114602,
    "nombre_comuna": "RIO IBANEZ"
  },
  {
    "comuna_id": 114701,
    "nombre_comuna": "COCHRANE"
  },
  {
    "comuna_id": 114702,
    "nombre_comuna": "OHIGGINS"
  },
  {
    "comuna_id": 114703,
    "nombre_comuna": "TORTEL"
  },
  {
    "comuna_id": 124801,
    "nombre_comuna": "NATALES"
  },
  {
    "comuna_id": 124802,
    "nombre_comuna": "TORRES DEL PAINE"
  },
  {
    "comuna_id": 124901,
    "nombre_comuna": "PUNTA ARENAS"
  },
  {
    "comuna_id": 124902,
    "nombre_comuna": "RIO VERDE"
  },
  {
    "comuna_id": 124903,
    "nombre_comuna": "LAGUNA BLANCA"
  },
  {
    "comuna_id": 124904,
    "nombre_comuna": "SAN GREGORIO"
  },
  {
    "comuna_id": 125001,
    "nombre_comuna": "PORVENIR"
  },
  {
    "comuna_id": 125002,
    "nombre_comuna": "PRIMAVERA"
  },
  {
    "comuna_id": 125003,
    "nombre_comuna": "TIMAUKEL"
  },
  {
    "comuna_id": 125101,
    "nombre_comuna": "CABO DE HORNOS"
  },
  {
    "comuna_id": 132001,
    "nombre_comuna": "COLINA"
  },
  {
    "comuna_id": 132002,
    "nombre_comuna": "LAMPA"
  },
  {
    "comuna_id": 132003,
    "nombre_comuna": "TILTIL"
  },
  {
    "comuna_id": 132101,
    "nombre_comuna": "SANTIAGO"
  },
  {
    "comuna_id": 132102,
    "nombre_comuna": "INDEPENDENCIA"
  },
  {
    "comuna_id": 132103,
    "nombre_comuna": "RECOLETA"
  },
  {
    "comuna_id": 132104,
    "nombre_comuna": "ESTACION CENTRAL"
  },
  {
    "comuna_id": 132105,
    "nombre_comuna": "CONCHALI"
  },
  {
    "comuna_id": 132106,
    "nombre_comuna": "HUECHURABA"
  },
  {
    "comuna_id": 132107,
    "nombre_comuna": "QUILICURA"
  },
  {
    "comuna_id": 132108,
    "nombre_comuna": "RENCA"
  },
  {
    "comuna_id": 132109,
    "nombre_comuna": "QUINTA NORMAL"
  },
  {
    "comuna_id": 132110,
    "nombre_comuna": "PUDAHUEL"
  },
  {
    "comuna_id": 132111,
    "nombre_comuna": "CERRO NAVIA"
  },
  {
    "comuna_id": 132112,
    "nombre_comuna": "LO PRADO"
  },
  {
    "comuna_id": 132113,
    "nombre_comuna": "MAIPU"
  },
  {
    "comuna_id": 132114,
    "nombre_comuna": "CERRILLOS"
  },
  {
    "comuna_id": 132115,
    "nombre_comuna": "LA CISTERNA"
  },
  {
    "comuna_id": 132116,
    "nombre_comuna": "LO ESPEJO"
  },
  {
    "comuna_id": 132117,
    "nombre_comuna": "EL BOSQUE"
  },
  {
    "comuna_id": 132118,
    "nombre_comuna": "LA GRANJA"
  },
  {
    "comuna_id": 132119,
    "nombre_comuna": "LA PINTANA"
  },
  {
    "comuna_id": 132120,
    "nombre_comuna": "SAN RAMON"
  },
  {
    "comuna_id": 132121,
    "nombre_comuna": "SAN MIGUEL"
  },
  {
    "comuna_id": 132122,
    "nombre_comuna": "PEDRO AGUIRRE CERDA"
  },
  {
    "comuna_id": 132123,
    "nombre_comuna": "SAN JOAQUIN"
  },
  {
    "comuna_id": 132124,
    "nombre_comuna": "LA FLORIDA"
  },
  {
    "comuna_id": 132125,
    "nombre_comuna": "NUNOA"
  },
  {
    "comuna_id": 132126,
    "nombre_comuna": "MACUL"
  },
  {
    "comuna_id": 132127,
    "nombre_comuna": "PENALOLEN"
  },
  {
    "comuna_id": 132128,
    "nombre_comuna": "LA REINA"
  },
  {
    "comuna_id": 132129,
    "nombre_comuna": "PROVIDENCIA"
  },
  {
    "comuna_id": 132130,
    "nombre_comuna": "LAS CONDES"
  },
  {
    "comuna_id": 132131,
    "nombre_comuna": "VITACURA"
  },
  {
    "comuna_id": 132132,
    "nombre_comuna": "LO BARNECHEA"
  },
  {
    "comuna_id": 132201,
    "nombre_comuna": "PUENTE ALTO"
  },
  {
    "comuna_id": 132202,
    "nombre_comuna": "PIRQUE"
  },
  {
    "comuna_id": 132203,
    "nombre_comuna": "SAN JOSE DE MAIPO"
  },
  {
    "comuna_id": 132301,
    "nombre_comuna": "SAN BERNARDO"
  },
  {
    "comuna_id": 132302,
    "nombre_comuna": "CALERA DE TANGO"
  },
  {
    "comuna_id": 132303,
    "nombre_comuna": "BUIN"
  },
  {
    "comuna_id": 132304,
    "nombre_comuna": "PAINE"
  },
  {
    "comuna_id": 132401,
    "nombre_comuna": "MELIPILLA"
  },
  {
    "comuna_id": 132402,
    "nombre_comuna": "ALHUE"
  },
  {
    "comuna_id": 132403,
    "nombre_comuna": "CURACAVI"
  },
  {
    "comuna_id": 132404,
    "nombre_comuna": "MARIA PINTO"
  },
  {
    "comuna_id": 132405,
    "nombre_comuna": "SAN PEDRO"
  },
  {
    "comuna_id": 132501,
    "nombre_comuna": "TALAGANTE"
  },
  {
    "comuna_id": 132502,
    "nombre_comuna": "PENAFLOR"
  },
  {
    "comuna_id": 132503,
    "nombre_comuna": "EL MONTE"
  },
  {
    "comuna_id": 132504,
    "nombre_comuna": "ISLA DE MAIPO"
  },
  {
    "comuna_id": 132505,
    "nombre_comuna": "PADRE HURTADO"
  },
  {
    "comuna_id": 143901,
    "nombre_comuna": "VALDIVIA"
  },
  {
    "comuna_id": 143902,
    "nombre_comuna": "MARIQUINA"
  },
  {
    "comuna_id": 143903,
    "nombre_comuna": "LANCO"
  },
  {
    "comuna_id": 143904,
    "nombre_comuna": "LOS LAGOS"
  },
  {
    "comuna_id": 143905,
    "nombre_comuna": "CORRAL"
  },
  {
    "comuna_id": 143906,
    "nombre_comuna": "MAFIL"
  },
  {
    "comuna_id": 143907,
    "nombre_comuna": "PANGUIPULLI"
  },
  {
    "comuna_id": 143908,
    "nombre_comuna": "PAILLACO"
  },
  {
    "comuna_id": 145301,
    "nombre_comuna": "FUTRONO"
  },
  {
    "comuna_id": 145302,
    "nombre_comuna": "LA UNION"
  },
  {
    "comuna_id": 145303,
    "nombre_comuna": "RIO BUENO"
  },
  {
    "comuna_id": 145304,
    "nombre_comuna": "LAGO RANCO"
  },
  {
    "comuna_id": 150101,
    "nombre_comuna": "ARICA"
  },
  {
    "comuna_id": 150102,
    "nombre_comuna": "CAMARONES"
  },
  {
    "comuna_id": 150201,
    "nombre_comuna": "PUTRE"
  },
  {
    "comuna_id": 150202,
    "nombre_comuna": "GENERAL LAGOS"
  }
]