[
  {
    "pais_id": 8001,
    "pais": "ALEMANIA"
  },
  {
    "pais_id": 8002,
    "pais": "ARGENTINA"
  },
  {
    "pais_id": 8003,
    "pais": "AUSTRALIA"
  },
  {
    "pais_id": 8004,
    "pais": "AUSTRIA"
  },
  {
    "pais_id": 8005,
    "pais": "BELGICA"
  },
  {
    "pais_id": 8006,
    "pais": "BOLIVIA"
  },
  {
    "pais_id": 8007,
    "pais": "BRASIL"
  },
  {
    "pais_id": 8008,
    "pais": "CANADA"
  },
  {
    "pais_id": 8009,
    "pais": "COLOMBIA"
  },
  {
    "pais_id": 8010,
    "pais": "COREA"
  },
  {
    "pais_id": 8011,
    "pais": "COSTA RICA"
  },
  {
    "pais_id": 8012,
    "pais": "CROACIA"
  },
  {
    "pais_id": 8013,
    "pais": "CUBA"
  },
  {
    "pais_id": 8014,
    "pais": "DINAMARCA"
  },
  {
    "pais_id": 8015,
    "pais": "ECUADOR"
  },
  {
    "pais_id": 8016,
    "pais": "EGIPTO"
  },
  {
    "pais_id": 8017,
    "pais": "EL LIBANO"
  },
  {
    "pais_id": 8018,
    "pais": "EL SALVADOR"
  },
  {
    "pais_id": 8019,
    "pais": "EMIRATOS ARABES UNIDOS"
  },
  {
    "pais_id": 8020,
    "pais": "ESPANA"
  },
  {
    "pais_id": 8021,
    "pais": "ESTADOS UNIDOS"
  },
  {
    "pais_id": 8022,
    "pais": "FEDERACION RUSA"
  },
  {
    "pais_id": 8023,
    "pais": "FILIPINAS"
  },
  {
    "pais_id": 8024,
    "pais": "FINLANDIA"
  },
  {
    "pais_id": 8025,
    "pais": "FRANCIA"
  },
  {
    "pais_id": 8026,
    "pais": "GRECIA"
  },
  {
    "pais_id": 8027,
    "pais": "GUATEMALA"
  },
  {
    "pais_id": 8028,
    "pais": "HAITI"
  },
  {
    "pais_id": 8029,
    "pais": "HONDURAS"
  },
  {
    "pais_id": 8030,
    "pais": "HUNGRIA"
  },
  {
    "pais_id": 8031,
    "pais": "INDIA"
  },
  {
    "pais_id": 8032,
    "pais": "INDONESIA"
  },
  {
    "pais_id": 8033,
    "pais": "IRLANDA"
  },
  {
    "pais_id": 8034,
    "pais": "ISRAEL"
  },
  {
    "pais_id": 8035,
    "pais": "ITALIA"
  },
  {
    "pais_id": 8036,
    "pais": "JAPON"
  },
  {
    "pais_id": 8037,
    "pais": "JORDANIA"
  },
  {
    "pais_id": 8038,
    "pais": "KENIA"
  },
  {
    "pais_id": 8039,
    "pais": "MALASIA"
  },
  {
    "pais_id": 8040,
    "pais": "MEXICO"
  },
  {
    "pais_id": 8041,
    "pais": "NICARAGUA"
  },
  {
    "pais_id": 8042,
    "pais": "NORUEGA"
  },
  {
    "pais_id": 8043,
    "pais": "NUEVA ZELANDA"
  },
  {
    "pais_id": 8044,
    "pais": "PAISES BAJOS"
  },
  {
    "pais_id": 8045,
    "pais": "PANAMA"
  },
  {
    "pais_id": 8046,
    "pais": "PARAGUAY"
  },
  {
    "pais_id": 8047,
    "pais": "PERU"
  },
  {
    "pais_id": 8048,
    "pais": "POLONIA"
  },
  {
    "pais_id": 8049,
    "pais": "PORTUGAL"
  },
  {
    "pais_id": 8050,
    "pais": "REINO UNIDO"
  },
  {
    "pais_id": 8051,
    "pais": "REPUBLICA CHECA"
  },
  {
    "pais_id": 8052,
    "pais": "REPUBLICA DOMINICANA"
  },
  {
    "pais_id": 8053,
    "pais": "REPUBLICA POPULAR CHINA"
  },
  {
    "pais_id": 8054,
    "pais": "RUMANIA"
  },
  {
    "pais_id": 8055,
    "pais": "SINGAPUR"
  },
  {
    "pais_id": 8056,
    "pais": "CHILE"
  },
  {
    "pais_id": 8057,
    "pais": "SUDAFRICA"
  },
  {
    "pais_id": 8058,
    "pais": "SUECIA"
  },
  {
    "pais_id": 8059,
    "pais": "SUIZA"
  },
  {
    "pais_id": 8060,
    "pais": "TAILANDIA"
  },
  {
    "pais_id": 8061,
    "pais": "TURQUIA"
  },
  {
    "pais_id": 8062,
    "pais": "URUGUAY"
  },
  {
    "pais_id": 8063,
    "pais": "VENEZUELA"
  }
]