[
  {
    "consulado_id": 11001,
    "nnombre_consulado": "SECCION CONSULAR ABU DHABI"
  },
  {
    "consulado_id": 11002,
    "nnombre_consulado": "SECCION CONSULAR AMMAN"
  },
  {
    "consulado_id": 11003,
    "nnombre_consulado": "CONSULADO GENERAL AMSTERDAM"
  },
  {
    "consulado_id": 11004,
    "nnombre_consulado": "SECCION CONSULAR ANKARA"
  },
  {
    "consulado_id": 11005,
    "nnombre_consulado": "SECCION CONSULAR ASUNCION"
  },
  {
    "consulado_id": 11006,
    "nnombre_consulado": "SECCION CONSULAR ATENAS"
  },
  {
    "consulado_id": 11007,
    "nnombre_consulado": "CONSULADO BAHIA BLANCA"
  },
  {
    "consulado_id": 11008,
    "nnombre_consulado": "SECCION CONSULAR BANGKOK"
  },
  {
    "consulado_id": 11009,
    "nnombre_consulado": "CONSULADO GENERAL BARCELONA"
  },
  {
    "consulado_id": 11010,
    "nnombre_consulado": "CONSULADO GENERAL BARILOCHE"
  },
  {
    "consulado_id": 11011,
    "nnombre_consulado": "SECCION CONSULAR BEIJING"
  },
  {
    "consulado_id": 11012,
    "nnombre_consulado": "SECCION CONSULAR BEIRUT"
  },
  {
    "consulado_id": 11013,
    "nnombre_consulado": "SECCION CONSULAR BERLIN"
  },
  {
    "consulado_id": 11014,
    "nnombre_consulado": "SECCION CONSULAR BERNA"
  },
  {
    "consulado_id": 11015,
    "nnombre_consulado": "CONSULADO GENERAL BOGOTA"
  },
  {
    "consulado_id": 11016,
    "nnombre_consulado": "SECCION CONSULAR BRASILIA"
  },
  {
    "consulado_id": 11017,
    "nnombre_consulado": "SECCION CONSULAR BRUSELAS"
  },
  {
    "consulado_id": 11018,
    "nnombre_consulado": "SECCION CONSULAR BUCAREST"
  },
  {
    "consulado_id": 11019,
    "nnombre_consulado": "SECCION CONSULAR BUDAPEST"
  },
  {
    "consulado_id": 11020,
    "nnombre_consulado": "CONSULADO GENERAL BUENOS AIRES"
  },
  {
    "consulado_id": 11021,
    "nnombre_consulado": "SECCION CONSULAR CANBERRA"
  },
  {
    "consulado_id": 11022,
    "nnombre_consulado": "CONSULADO GENERAL CARACAS"
  },
  {
    "consulado_id": 11023,
    "nnombre_consulado": "CONSULADO GENERAL CHICAGO"
  },
  {
    "consulado_id": 11024,
    "nnombre_consulado": "CONSULADO GENERAL CIUDAD DE MEXICO"
  },
  {
    "consulado_id": 11025,
    "nnombre_consulado": "SECCION CONSULAR CIUDAD DE PANAMA"
  },
  {
    "consulado_id": 11026,
    "nnombre_consulado": "CONSULADO COMODORO RIVADAVIA"
  },
  {
    "consulado_id": 11027,
    "nnombre_consulado": "SECCION CONSULAR COPENHAGUE"
  },
  {
    "consulado_id": 11028,
    "nnombre_consulado": "CONSULADO GENERAL CORDOBA"
  },
  {
    "consulado_id": 11029,
    "nnombre_consulado": "SECCION CONSULAR DUBLIN"
  },
  {
    "consulado_id": 11030,
    "nnombre_consulado": "SECCION CONSULAR EL CAIRO"
  },
  {
    "consulado_id": 11031,
    "nnombre_consulado": "CONSULADO ESTOCOLMO"
  },
  {
    "consulado_id": 11032,
    "nnombre_consulado": "CONSULADO GENERAL FRANKFURT"
  },
  {
    "consulado_id": 11033,
    "nnombre_consulado": "CONSULADO GOTEMBURGO"
  },
  {
    "consulado_id": 11034,
    "nnombre_consulado": "CONSULADO GENERAL GUANGZHOU"
  },
  {
    "consulado_id": 11035,
    "nnombre_consulado": "SECCION CONSULAR GUATEMALA"
  },
  {
    "consulado_id": 11036,
    "nnombre_consulado": "CONSULADO GENERAL GUAYAQUIL"
  },
  {
    "consulado_id": 11037,
    "nnombre_consulado": "CONSULADO GENERAL HAMBURGO"
  },
  {
    "consulado_id": 11038,
    "nnombre_consulado": "SECCION CONSULAR HELSINSKI"
  },
  {
    "consulado_id": 11039,
    "nnombre_consulado": "CONSULADO GENERAL HONG KONG"
  },
  {
    "consulado_id": 11040,
    "nnombre_consulado": "CONSULADO GENERAL HOUSTON"
  },
  {
    "consulado_id": 11041,
    "nnombre_consulado": "SECCION CONSULAR JAKARTA"
  },
  {
    "consulado_id": 11042,
    "nnombre_consulado": "SECCION CONSULAR KUALA LUMPUR"
  },
  {
    "consulado_id": 11043,
    "nnombre_consulado": "SECCION CONSULAR LA HABANA"
  },
  {
    "consulado_id": 11044,
    "nnombre_consulado": "CONSULADO GENERAL LA PAZ"
  },
  {
    "consulado_id": 11045,
    "nnombre_consulado": "CONSULADO GENERAL LIMA"
  },
  {
    "consulado_id": 11046,
    "nnombre_consulado": "SECCION CONSULAR LISBOA"
  },
  {
    "consulado_id": 11047,
    "nnombre_consulado": "CONSULADO GENERAL LONDRES"
  },
  {
    "consulado_id": 11048,
    "nnombre_consulado": "CONSULADO GENERAL LOS ANGELES"
  },
  {
    "consulado_id": 11049,
    "nnombre_consulado": "CONSULADO GENERAL MADRID"
  },
  {
    "consulado_id": 11050,
    "nnombre_consulado": "SECCION CONSULAR MANAGUA"
  },
  {
    "consulado_id": 11051,
    "nnombre_consulado": "SECCION CONSULAR MANILA"
  },
  {
    "consulado_id": 11052,
    "nnombre_consulado": "CONSULADO MAR DEL PLATA"
  },
  {
    "consulado_id": 11053,
    "nnombre_consulado": "CONSULADO GENERAL MELBOURNE"
  },
  {
    "consulado_id": 11054,
    "nnombre_consulado": "CONSULADO GENERAL MENDOZA"
  },
  {
    "consulado_id": 11055,
    "nnombre_consulado": "CONSULADO GENERAL MIAMI"
  },
  {
    "consulado_id": 11056,
    "nnombre_consulado": "CONSULADO GENERAL MILAN"
  },
  {
    "consulado_id": 11057,
    "nnombre_consulado": "CONSULADO GENERAL MONTEVIDEO"
  },
  {
    "consulado_id": 11058,
    "nnombre_consulado": "CONSULADO GENERAL MONTREAL"
  },
  {
    "consulado_id": 11059,
    "nnombre_consulado": "SECCION CONSULAR MOSCU"
  },
  {
    "consulado_id": 11060,
    "nnombre_consulado": "CONSULADO GENERAL MUNICH"
  },
  {
    "consulado_id": 11061,
    "nnombre_consulado": "SECCION CONSULAR NAIROBI"
  },
  {
    "consulado_id": 11062,
    "nnombre_consulado": "CONSULADO GENERAL NEUQUEN"
  },
  {
    "consulado_id": 11063,
    "nnombre_consulado": "SECCION CONSULAR NUEVA DELHI"
  },
  {
    "consulado_id": 11064,
    "nnombre_consulado": "CONSULADO GENERAL NUEVA YORK"
  },
  {
    "consulado_id": 11065,
    "nnombre_consulado": "SECCION CONSULAR OSLO"
  },
  {
    "consulado_id": 11066,
    "nnombre_consulado": "SECCION CONSULAR OTTAWA"
  },
  {
    "consulado_id": 11067,
    "nnombre_consulado": "CONSULADO GENERAL PARIS"
  },
  {
    "consulado_id": 11068,
    "nnombre_consulado": "CONSULADO GENERAL PORTO ALEGRE"
  },
  {
    "consulado_id": 11069,
    "nnombre_consulado": "SECCION CONSULAR PRAGA"
  },
  {
    "consulado_id": 11070,
    "nnombre_consulado": "SECCION CONSULAR PRETORIA"
  },
  {
    "consulado_id": 11071,
    "nnombre_consulado": "CONSULADO PUERTO ORDAZ"
  },
  {
    "consulado_id": 11072,
    "nnombre_consulado": "SECCION CONSULAR PUERTO PRINCIPE"
  },
  {
    "consulado_id": 11073,
    "nnombre_consulado": "SECCION CONSULAR QUITO"
  },
  {
    "consulado_id": 11074,
    "nnombre_consulado": "CONSULADO GENERAL RIO DE JANEIRO"
  },
  {
    "consulado_id": 11075,
    "nnombre_consulado": "CONSULADO GENERAL RIO GALLEGOS"
  },
  {
    "consulado_id": 11076,
    "nnombre_consulado": "CONSULADO RIO GRANDE"
  },
  {
    "consulado_id": 11077,
    "nnombre_consulado": "SECCION CONSULAR ROMA"
  },
  {
    "consulado_id": 11078,
    "nnombre_consulado": "CONSULADO GENERAL ROSARIO"
  },
  {
    "consulado_id": 11079,
    "nnombre_consulado": "CONSULADO GENERAL SALTA"
  },
  {
    "consulado_id": 11080,
    "nnombre_consulado": "CONSULADO GENERAL SAN FRANCISCO"
  },
  {
    "consulado_id": 11081,
    "nnombre_consulado": "SECCION CONSULAR SAN JOSE"
  },
  {
    "consulado_id": 11082,
    "nnombre_consulado": "SECCION CONSULAR SAN SALVADOR"
  },
  {
    "consulado_id": 11083,
    "nnombre_consulado": "CONSULADO GENERAL SANTA CRUZ"
  },
  {
    "consulado_id": 11084,
    "nnombre_consulado": "SECCION CONSULAR SANTO DOMINGO"
  },
  {
    "consulado_id": 11085,
    "nnombre_consulado": "CONSULADO GENERAL SAO PAULO"
  },
  {
    "consulado_id": 11086,
    "nnombre_consulado": "SECCION CONSULAR SEUL"
  },
  {
    "consulado_id": 11087,
    "nnombre_consulado": "CONSULADO GENERAL SHANGHAI"
  },
  {
    "consulado_id": 11088,
    "nnombre_consulado": "SECCION CONSULAR SINGAPUR"
  },
  {
    "consulado_id": 11089,
    "nnombre_consulado": "CONSULADO GENERAL SYDNEY"
  },
  {
    "consulado_id": 11090,
    "nnombre_consulado": "CONSULADO GENERAL TACNA"
  },
  {
    "consulado_id": 11091,
    "nnombre_consulado": "SECCION CONSULAR TEGUCIGALPA"
  },
  {
    "consulado_id": 11092,
    "nnombre_consulado": "SECCION CONSULAR TEL AVIV"
  },
  {
    "consulado_id": 11093,
    "nnombre_consulado": "SECCION CONSULAR TOKIO"
  },
  {
    "consulado_id": 11094,
    "nnombre_consulado": "CONSULADO GENERAL TORONTO"
  },
  {
    "consulado_id": 11095,
    "nnombre_consulado": "CONSULADO USHUAIA"
  },
  {
    "consulado_id": 11096,
    "nnombre_consulado": "CONSULADO GENERAL VANCOUVER"
  },
  {
    "consulado_id": 11097,
    "nnombre_consulado": "SECCION CONSULAR VARSOVIA"
  },
  {
    "consulado_id": 11098,
    "nnombre_consulado": "SECCION CONSULAR VIENA"
  },
  {
    "consulado_id": 11099,
    "nnombre_consulado": "SECCION CONSULAR WASHINGTON"
  },
  {
    "consulado_id": 11100,
    "nnombre_consulado": "SECCION CONSULAR WELLINGTON"
  },
  {
    "consulado_id": 11101,
    "nnombre_consulado": "SECCION CONSULAR ZAGREB"
  }
]